;sentiment;text
0;Negativo;"bruno da pousada foi buscar a gente no porto  pagamos   pila  meio salgado mas tinhamos muitas malas e ir de onibus era impossivel  entao ficou pratico  oferecem esse servico q e bacana 
"
1;Positivo;"na pousada o sr  haroldo nos recebeu mesmo tarde da noite  achei pousada simples  porem muito confortavel  atendimento impecavel  os donos da pousada sao extremamente solicitos e simpaticos  cafe da manha muito gostoso com direito a tapioca preparada na hora  fomos muito bem recepcionados  fizemos alguns passeios pela regiao com guias indicados pela pousada e adoramos  recomendo o hotel e bem proximo a praia   local agradavel com piscina limpa e uma area nos fundos bem ampla com espaco para almoco em grupo  com fogao pia  geladeira  banheiro  mesa de sinuca  cafe da manha simples mais bem caprichado  quarto nao muito grande mas a uma quadra de tudo  quartos
"
2;Neutro;"amplos limpos e travesseiros cheirosos  chuveiro bom  atendimento agradavel  possui um espaco para festa com mesa sinuca churrasqueira e banheiro com piscina   local chamado de  maloca de festas o hotel e simples  porem  muito limpo e muito bem localizado  fica a duas quadras da praca  onde tudo acontece  o cafe da manha e bom  um otimo chuveiro com aquecimento central  o preco da diaria e muito bom  vale a pena se hospedar no amei o hotel borari  tudo muito limpo  pessoal simpatico e dedicados  fiquei surpresa com o lindo jardim com plantas variadas que o proprio dono ajuda cuidar com carinho  uma piscina ampla e com o jardim ao redor  amei e voltarei proximo ano para o caire eu e meu marido ficamos surpresos com o hotel borari  principalmente no sentido que e um hotel novo e seu mobiliario e todo de primeira e moderno  possui piscina e uma area para fazer churrasco com mesa de sinuca  o atendimento foi muito receptivo e com localizacao excelente   pertinho da praia e perto tambem do centrinho e a melhor pedida para quem vai a alter do chao  atendimento esmerado  apartamentos limpos podemos dizer que e uma simplicidade luxuosa  vale a pena bem localizado  na baixa temporada e possivel negociar um valor camarada com os donos  bom cafe da manha  funcionarios atenciosos  otima piscina  com a possibilidade de se usar uma churrasqueira  quarto novo e amplo alter do chao e um paraiso  e o hotel borari fez eu me sentir em casa  estrutura moderna  o hotel oferece bastante conforto e com excelente servico  vale ressaltar que serve um farto e delicioso cafe da manha   recomendadissimo a pousada e muito bem localizada  de frente para praca principal  mas em setembro isso pode ser um problema  com os shows acontecendo na praca nao ha paz ate bem tarde  por vezes parece que a banda esta dentro do quarto de tao alto localizada na area central da cidade  perto da praia  restaurantes  mercadinhos  pousada otima  com um bom ar condicionado  frigobar  tv e camas confortaveis  cafe da manha bom  com sucos do local  variedades de frutas  adorei a tapioca otima pousada  muito bem localizada em frente a praca de alter do chao  bem pertinho da praia  acomodacoes boas e completas para uma boa estadia  bom atendimento  limpeza ok  cafe simples mas completo e bom  destaque para a tapioca e ovo mexido feito na hora bom pousada no coracao de alter do chao  em frente a praca principal e a ilha do amor  principal praia do lugar  pessoal atencioso  quarto espacoso e limpo  a pousada da a opcao de manter o frigobar vazio para que vc coloque o que quiser  embaixo o local conta com o atendimento da familia  em especial o dorisson  cafe da manha farto  e de quebra um lanche da tarde disponibilizado pelo cozinheiro mais simpatico que eu ja vi  sem contar que fica em frente a praca  onde todos se reunem a esta pousada fica bem na praca central de alter do chao  ao lado para igreja matriz  simpatica e confortavel  com bom custo beneficio  a poucos metros das praias do rio tapajos  o atendimento foi eficiente e o apartamento em que nos hospedamos era amplo e e a melhor opcao proximo a santarem  tanto quartos superior quanto standard sao bons e a limpeza e impecavel  tudo cheirosinho e muito limpo  o cafe tambem e bom  a localizacao em alter do chao e otima  de frente a peninsula e a praca com quartos grandes e arejados com varanda  muito limpo e bonito  localizado sobre uma loja de artesanato local  um mini mercado e em frente a alguns restaurantes e a praia principal da peninsula do morro da piroga  o cafe da manha poderia ser melhor pousada simples mais muito aconchegante todos foram muitos atenciosos e so temos a agradecer a hospitalidade a dona alice  seu sabino  a bella e a iris muito atenciosos nos sentimos em casa 
"
3;Positivo;"so tenho a agradecer  ficamos em familia e foi maravilhoso 
"
4;Neutro;"saudades dela nao ficamos hospedadas no hotel  apenas passamos um dia na beira da praia e piscina  um cafe da manha variado e delicioso  um atendimento na beira da praia de qualidade e um almoco simples e com sabor inigualavel conforto e comodidade em meio a natureza  com mata nativa  possibilidade da visualizacao de passaros silvestres  as lindas e cativantes preguicas que bailam ao redor do complexo hoteleiro encantam seus hospedes  tranquilidade e conforto em um so lugar  belo alter hotel otima localizacao  voce toma cafe da manha  ouvindo os passaros  a beira de uma picina e muito verde  funcionarios super atenciosos  as refeicoes para o almoco  sao bem variadas para todos os gostos  sempre como peixe e a esposa  frango ou carne  e bons passeios primeiro o hotel  fica em uma grande area verde a cerca de   km do centro  ponto positivo  o lugar  ponto negativo  o deslocamento de e para a vila  que nao e cansativo  mas quem nao gosta de caminhar vai ter que pegar um taxi fui para a pousada sozinha  cheia de duvidas em relacao ao local  o pessoal da portaria foram super atenciosos e logo perdi o medo  a pousada e proxima da praia e do centrinho  da para ir a pe tranquilamente  eu  inclusive saia a noite sozinha lugar delicioso  nao muito perto da muvuca e nao tao longe da praia  super limpa e aconchegante o espaco  atendimento nota    apesar de nao estar totalmente pronta nao senti falta de nada  nem mesmo do chuveiro eletrico que no meu quarto nao tinha fui com uma amiga passar   noites na epoca de ano novo  era o lugar mais barato da cidade  e um dos poucos que ainda tinha vaga  deu pra ver a razao assim que a gente chegou  quarto sujo  o pe ficava preto de caminhar gostei do lugar apesar de ser muito simples  sr armando me tratou como filha  suas funcionarias tambe  gostei muito do ambiente e vi nas avaliacoes que todos se sentiram em casa  e realmente e assim  so a limpeza deixa muito a desejar  e o cafe a pousada e pequena e bem aconchegante  a poucas quadras da praca central de alter a pousada fica em um local tranquilo e de facil acesso as praias  fomos muito bem recebidos pelos proprietarios que destinam toda a atencao ao bem estar dos seus hospedes pousada muito agradavel  mantida pelos proprietarios eduardo e eliana  quartos muito limpos e bem equipados  ar condicionado split  frigobar  mesa e bancos  cama confortavel  chuveiro com agua quente  cafe da manha muito saboroso  com frutas    sabores de suco natural  varia todo o dia  cafe a pousada e bem simples com estrutura basica em todos os sentidos  o quarto  o cafe de manha e o atendimento  a presenca dos donos ou de algum funcionario na recepcao e praticamente inexistente  o que lembra muito mais o esquema de airbnb do que passar tres dias na vila de alter foi uma experiencia surpreendente  a paisagem esplendorosa de alter do chao  o conforto e acolhimento proporcionados pelo pessoal da vila  o cafe da manha carinhosamente preparado para nos  a oportunidade de sentir se dentro da floresta  tudo foi inesquecivel e impossivel nao se encantar com alter do chao  e tao impossivel quanto nao se apaixonar pela pousada vila de alter  o clima intimista da pousada ja te conquista no momento de chegada e perdura durante toda sua estadia 
"
5;Neutro;"a pousada tem apenas   bangalos hotel limpo  bem localizado   proximo de tudo  atendentes gentis  tem vista pro rio e pra ilha do amor  restaurante bom  a piscina  apesar de boa  nao apresenta vegetacao para sombra  ou seja  e muito arida bom atendimento  conforto e higienico  vista panoramica da enseada dos lagos  verde e macaco que se encontro a frente da barra fluvial ilha  de uma beleza encantadora exalta a alma e fortifica o corpo  otimo para o descanso olha  ja viajei bastante no para e ja estou acostumado com alguns  imprevistos  como roupas de cama nao muito limpas  toalhas velhas  chuveiro frio  etc  em alter do chao esperava algo parecido  
"
6;Neutro;ocorre que o hotel mirante de ilha e diferente de tudo isso  primeiramente hotel com excelente localizacao em frente a ilha do amor que e uma das principais  senao a principal atracao de alter do chao  trata se de uma ilha e  consequentemente  uma praia belissima e muito inspiradora formada geralmente entre os meses de agosto e fevereiro  os 
