;sentiment;text
0;Neutro;"pessoal atencioso  quarto decente  ar condicionado gela e e limpo  banheiro ok  pousada proxima do acesso a praia  tem uma area com fogao para preparar alimentos comprados fora  mercadinhos  e um chuveirao se quiser refrescar do calor esta pousada e agradavel e acolhedora como as coisas boas e simples da vida  a localizacao e boa   nao e beeem na praca central de alter do chao  mas e perto o suficiente de lojinhas e restaurantes e longe de quaquer eventual barulho  o os proprietarios sao gentis e solicitos  
"
1;Negativo;"a pousada e simples mas o cafe da manha e gostoso e bem servido  com frutas e sucos regionais  a tapioca e bem gostosa  e se vc quiser pode pedir ovos mexidos tambem  
"
2;Positivo;"os quartos sao limpos diariamente o hotel esta localizado no meio da mata ao mesmo tempo proximo do centro de alter    a   min de caminhada  tem tambem uma praia propria  quase privativa na lagoa verde 
"
3;Neutro;"os quartos estao localizados em um predio de alvenaria de dois andares  os o hotel e simples  porem  muito confortavel  instalacoes simples  mas agradavel  e funcional  tudo limpo e organizado  tudo funcionando em perfeito estado  cafe da manha variado  gostoso e funcionarios atenciosos  saimos para um passeio de barco  onde o barco encostou nos fundos da pousada otima localizacao para quem tem disponibilidade para caminhadas ou esta de carro  o hotel tem praia particular e esta a   minutos a pe ate a ilha do amor  serve um bom cafe da manha mas o restaurante a comida nao e saborosa  nao indico lugar tranquilo e aconchegante  
"
4;Positivo;"
"
5;Neutro;"o hotel tem funcionarios atenciosos e possui praia privativa  gostei do quarto  grande  tem varanda e muito bom  curtimos a piscina e adoramos o restaurante do hotel  otimo  muito bom beloalter em abril    fiquei no andar terreo  o quarto e bem simples  e ha um pouco de cheiro de mofo  mas a paisagem compensa tudo que nao estiver tao bom o local e lindo  o hotel tem acesso ao rio que nesta epoca esta bem cheio uma opcao muito boa para aproveitar as aguas do rio tapajos em alter do chao  santarem  para  muito boa localizacao  bem proximo a praia e aos restaurantes centrais da bela alter um ambiente super tranquilo  atendimento muito bom super recomendado excelente opcao de hospedagem no coracao do rio tapajos   os quartos sao amplos a piscina deliciosa e o pessoal muito agradavel 
"
6;Neutro;"se quer curtir alter do chao no ambiante relaxante e profissional   pode passar uma semana neste hotel a pousada e muito simples  mas no meio de muitas plantas  o destaque mesmo e para o proprietario que e muito atencioso e prestativo  o inconveniente e que fica bastante distante da beira do rio e com o sol escaldante do para a volta e passei dias agradaveis nesse hotel  tudo bem arrumado e limpo  os funcionarios eram bem atenciosos  um excelente cafe da manha  valeu muito a pena passar esses dias no hotel  quando voltar a cidade pode ter a certeza que irei me hospedar no novamente ficamos quatro dias na vila de alter e foi uma experiencia incrivel na floresta  voce acorda com macaquinhos jogando coquinhos no teto do seu quarto  com passaros cantando  etc  tudo isso com uma estrutura alem do imaginado  as socias sao muito simpaticas  agradaveis e fazem sem palavras pra descrever este paraiso  a pousada e extremamente aconchegante  linda  cada cantinho que voce olha tem um detalhe  tudo de muito bom gosto  o cafe da manha e perfeito  as proprietarias e os  funcionarios da pousada sao muito agradaveis  
"
7;Neutro;" super recomendo  e voltarei a cidade por si so ja e encantadora  por isso nem observei tanto o hotel  iamos apenas para dormir  mas o quarto e bom  banheiro grande  cafe da manha razoavel  a internet so funciona as vezes  mas nem me incomodou  mas com uma vista incrivel muito bom  bem localizado as margens do tapajos  o cafe da manha achei fraco  com pouca variedade  atendentes atenciosos  preco justo  limpeza impecavel  no quarto a tv e pequena e ainda e de tubo  mas tem tv a cabo e um hotel de praia 
"
8;Positivo;"logo nao se pode exigir muito conforto
"
9;Positivo;"os quartos sao limpos e possuem janelas de frente para a praia ilha 
"
10;Positivo;"tem bom atendimento e e bem organizado
"
11;Neutro;"os precos nao sao tao baratos mas pode se pagar no cartao de credito
"
12;Neutro;tem o hotel e muito bem localizado  de frente para o rio  o que torna a vista de alguns quartos e do terraco excepcional e torna muito facil o acesso a praia e aos barcos para passeios  neste hotel voce ja comeca o dia comendo um a localizacao do hotel e excelente  a vista para o rio tapajos e deslumbrante  os quartos sao amplos e confortaveis  banheiro tambem  as camas sao macias  o cafe da manha e muito variado e saboroso  na minha opiniao um dos pontos altos do hotel ate tentei um contato via telefone whatsapp  mas nao consegui  experimentei via facebook e fui prontamente atendida obtive todas as informacoes necessarias  fiz minha reserva sem precisar de depositos adiantado  consegui chegar no local conforme as  dicas  recebidas e por ser conhecido pela populacao  tive um imprevisto 
